<svg xmlns="http://www.w3.org/2000/svg" width="14" height="14" viewBox="0 0 14 14">
  <defs>
    <style>
      .a {
        fill: #d72932;
      }
    </style>
  </defs>
  <title>add-mess</title>
  <g>
    <path class="a" d="M7,8.77a1.31,1.31,0,0,1-.86-.33L0,3.07v9.18A1.75,1.75,0,0,0,1.75,14h10.5A1.75,1.75,0,0,0,14,12.25V3.07L7.86,8.44A1.31,1.31,0,0,1,7,8.77Z"/>
    <rect class="a" x="3.5" y="2.1" width="7" height="2.8" rx="1.4" ry="1.4" transform="translate(10.5 -3.5) rotate(90)"/>
    <rect class="a" x="3.5" y="2.1" width="7" height="2.8" rx="1.4" ry="1.4" transform="translate(14 7) rotate(-180)"/>
  </g>
</svg>
