<svg xmlns="http://www.w3.org/2000/svg" width="12.04" height="6.92" viewBox="0 0 12.04 6.92">
  <defs>
    <style>
      .a {
        fill: gray;
      }
    </style>
  </defs>
  <title>list_hover</title>
  <path class="a" d="M6.72,6.63l5-4.92A1,1,0,0,0,11,0H1A1,1,0,0,0,.3,1.71l5,4.92A1,1,0,0,0,6.72,6.63Z"/>
</svg>
