<svg xmlns="http://www.w3.org/2000/svg" width="16" height="16" viewBox="0 0 16 16">
  <defs>
    <style>
      .a {
        fill: gray;
      }
    </style>
  </defs>
  <title>search_hover</title>
  <g>
    <path class="a" d="M6.68,13.37a6.68,6.68,0,1,1,6.68-6.68A6.69,6.69,0,0,1,6.68,13.37ZM6.68,3a3.68,3.68,0,1,0,3.68,3.68A3.69,3.69,0,0,0,6.68,3Z"/>
    <path class="a" d="M14.5,16a1.5,1.5,0,0,1-1.06-.44L9.63,11.75a1.5,1.5,0,0,1,2.12-2.12l3.81,3.81A1.5,1.5,0,0,1,14.5,16Z"/>
  </g>
</svg>
