<svg xmlns="http://www.w3.org/2000/svg" width="16" height="16" viewBox="0 0 16 16">
  <defs>
    <style>
      .a {
        fill: #b3b3b3;
      }
    </style>
  </defs>
  <title>table</title>
  <g>
    <rect class="a" width="4" height="4" rx="1" ry="1"/>
    <rect class="a" y="6" width="4" height="4" rx="1" ry="1"/>
    <rect class="a" y="12" width="4" height="4" rx="1" ry="1"/>
    <rect class="a" x="6" width="10" height="4" rx="1" ry="1"/>
    <rect class="a" x="6" y="6" width="10" height="4" rx="1" ry="1"/>
    <rect class="a" x="6" y="12" width="10" height="4" rx="1" ry="1"/>
  </g>
</svg>
